10744428
10685705
10732554
10726358
10757571
10692754
10735838
10760053
10750727
10775694
10716920
10679316
10750754
10745942
10685937
10756237
10663048
10627990
10627993
10668198
10628006
10756245
10685986
10750869
10647977
10712568
10644323
10686122
10648090
10771234
10750996
10736267
10764806
10613492
10636439
10763468
10759970
10624714
10712642
10762982
10624727
10771307
10748596
10712676
10686450
10686470
10726978
10751237
10745107
10712723
10732964
10624844
10686662
10663646
10751440
10706750
10709178
10748948
10675612
10663727
10680240
10694027
10709199
10751545
10669570
10680341
10624958
10733073
10686919
10756426
10675752
10669624
10663876
10625023
10751684
10687027
10751700
10687192
10751805
10705324
10706922
10669715
10625132
10625165
10687274
10756478
10706953
10717505
10751977
10720238
10664181
10752112
10760382
10725128
10752146
10711403
10737976
10752202
10768126
10636844
10752234
10722512
10664434
10713136
10717728
10752327
10763052
10625438
10619751
10625456
10711461
10687843
10650264
10752396
10752405
10752422
10625495
10752440
10687969
10664626
10749287
10749297
10688117
10717889
10709651
10746704
10664792
10676513
10650739
10695731
10688274
10738835
10705709
10650912
10752724
10752744
10759507
10752758
10625702
10665013
10665041
10625757
10774751
10645705
10688540
10718075
10702265
10752883
10615459
10657694
10637146
10752933
10752955
10688640
10661222
10625858
10746901
10725394
10682227
10709849
10774293
10718163
10774316
10657784
10772163
10746946
10688825
10625951
10682362
10772219
10711701
10645922
10626032
10734037
10739701
10718278
10689101
10758324
10759584
10770244
10713461
10689200
10642038
10723329
10620580
10753427
10734139
10753446
10642143
10713497
10760744
10631351
10747149
10724287
10753571
10772416
10689576
10710104
10713589
10626270
10682934
10753682
10749652
10689651
10626288
10747266
10721050
10626329
10753795
10616232
10753803
10665926
10753848
10616254
10753876
10683227
10753948
10718593
10677526
10710204
10626400
10724342
10683255
6588554
6588552
10705923
6588546
6588544
6588544
10725694
10730038
10697628
10697671
10710232
10672942
10677587
10759699
10626481
10705976
10705977
10754148
10626529
10754169
10760884
10770463
10672983
10639242
10772692
10723458
10754233
10754240
10770486
10626608
10639268
10754288
10626645
10754319
10754320
10626682
10754368
10725781
10626723
10626733
10710356
10674542
10749878
10741561
10690580
10754538
10626838
10690646
10626859
10626864
10626864
10768729
10724467
10730722
10744318
10770567
10757061
10626883
10747648
10666721
10754662
10741825
10762776
10759771
10772895
10698581
10754817
10698679
10730939
10710510
10719054
10710531
10754928
10719075
10659073
10721533
10627051
10768823
10754943
10770642
10691235
10754962
10371016
10754966
10754973
10754983
10755033
10755036
10755037
10755038
10755039
10755044
10755051
10627112
10633022
10750123
10742346
10755109
10773037
10627142
10647106
10755223
10708433
10744905
10712225
10719230
10678537
10773150
10621998
10659294
10659073
10721533
10627051
10706212
10719280
10755408
10755491
10731713
10773245
10627387
10627393
10755587
10750333
10757250
10755631
10735377
10639578
10755683
10719398
10750409
10673436
10617956
10692110
10719436
10755801
10773368
10627541
10755859
10699912
10755880
10692293
10719502
10935388
10706298
10708721
10755975
10770970
10757340
10639684
10668051
10769101
10627727
10714715
10773554
10732510
10674938
10735745
